%YAML 1.1
%TAG !u! tag:unity3d.com,2011:
--- !u!114 &11400000
MonoBehaviour:
  m_ObjectHideFlags: 0
  m_CorrespondingSourceObject: {fileID: 0}
  m_PrefabInstance: {fileID: 0}
  m_PrefabAsset: {fileID: 0}
  m_GameObject: {fileID: 0}
  m_Enabled: 1
  m_EditorHideFlags: 0
  m_Script: {fileID: 11500000, guid: 5080b03105178f34ea6cceacd763f50d, type: 3}
  m_Name: ShopItem4
  m_EditorClassIdentifier: 
  id: 3
  img: {fileID: 6620621745411573659, guid: 7b060f71613fadf4ab1a705c7205ed4c, type: 3}
  cost: 4444
  desc: desc4
